{
    "global-attribute": [
        "accesskey",
        "autocapitalize",
        "class",
        "contenteditable",
        "contextmenu",
        "data-*",
        "dir",
        "draggable",
        "dropzone",
        "hidden",
        "id",
        "itemprop",
        "lang",
        "slot",
        "spellcheck",
        "style",
        "tabindex",
        "title",
        "translate"
    ],
    "a": [
        "download",
        "href",
        "hreflang",
        "media",
        "ping",
        "rel",
        "shape",
        "target"
    ],
    "applet": [
        "align",
        "alt",
        "code",
        "codebase"
    ],
    "area": [
        "alt",
        "coords",
        "download",
        "href",
        "hreflang",
        "media",
        "ping",
        "rel",
        "shape",
        "target"
    ],
    "audio": [
        "autoplay",
        "buffered",
        "controls",
        "crossorigin",
        "loop",
        "muted",
        "preload",
        "src"
    ],
    "base": [
        "href",
        "target"
    ],
    "basefont": [
        "color"
    ],
    "bgsound": [
        "loop"
    ],
    "blockquote": [
        "cite"
    ],
    "body": [
        "bgcolor"
    ],
    "button": [
        "autofocus",
        "disabled",
        "form",
        "formaction",
        "name",
        "type",
        "value"
    ],
    "canvas": [
        "height",
        "width"
    ],
    "caption": [
        "align"
    ],
    "col": [
        "align",
        "bgcolor",
        "span"
    ],
    "colgroup": [
        "align",
        "bgcolor",
        "span"
    ],
    "command": [
        "checked",
        "disabled",
        "icon",
        "radiogroup",
        "type"
    ],
    "del": [
        "cite",
        "datetime"
    ],
    "details": [
        "open"
    ],
    "embed": [
        "height",
        "src",
        "type",
        "width"
    ],
    "fieldset": [
        "disabled",
        "form",
        "name"
    ],
    "font": [
        "color"
    ],
    "form": [
        "accept",
        "accept-charset",
        "action",
        "autocomplete",
        "enctype",
        "method",
        "name",
        "novalidate",
        "target"
    ],
    "hr": [
        "align",
        "color"
    ],
    "html": [
        "manifest"
    ],
    "iframe": [
        "align",
        "allow",
        "csp",
        "height",
        "importance",
        "lazyload",
        "name",
        "sandbox",
        "src",
        "srcdoc",
        "width"
    ],
    "img": [
        "align",
        "alt",
        "border",
        "crossorigin",
        "decoding",
        "height",
        "importance",
        "ismap",
        "lazyload",
        "sizes",
        "src",
        "srcset",
        "usemap",
        "width"
    ],
    "input": [
        "accept",
        "alt",
        "autocomplete",
        "autofocus",
        "checked",
        "dirname",
        "disabled",
        "form",
        "formaction",
        "height",
        "list",
        "max",
        "maxlength",
        "minlength",
        "min",
        "multiple",
        "name",
        "pattern",
        "placeholder",
        "readonly",
        "required",
        "size",
        "src",
        "step",
        "type",
        "usemap",
        "value",
        "width"
    ],
    "ins": [
        "cite",
        "datetime"
    ],
    "keygen": [
        "autofocus",
        "challenge",
        "disabled",
        "form",
        "keytype",
        "name"
    ],
    "label": [
        "for",
        "form"
    ],
    "li": [
        "value"
    ],
    "link": [
        "crossorigin",
        "href",
        "hreflang",
        "importance",
        "integrity",
        "media",
        "rel",
        "sizes"
    ],
    "map": [
        "name"
    ],
    "marquee": [
        "bgcolor",
        "loop"
    ],
    "menu": [
        "type"
    ],
    "meta": [
        "charset",
        "content",
        "http-equiv",
        "name"
    ],
    "meter": [
        "form",
        "high",
        "low",
        "max",
        "min",
        "optimum",
        "value"
    ],
    "object": [
        "border",
        "data",
        "form",
        "height",
        "name",
        "type",
        "usemap",
        "width"
    ],
    "ol": [
        "reversed",
        "start"
    ],
    "optgroup": [
        "disabled"
    ],
    "option": [
        "disabled",
        "selected",
        "value"
    ],
    "output": [
        "for",
        "form",
        "name"
    ],
    "param": [
        "name",
        "value"
    ],
    "progress": [
        "form",
        "max",
        "value"
    ],
    "q": [
        "cite"
    ],
    "script": [
        "async",
        "charset",
        "crossorigin",
        "defer",
        "importance",
        "integrity",
        "language",
        "src",
        "type"
    ],
    "select": [
        "autofocus",
        "disabled",
        "form",
        "multiple",
        "name",
        "required",
        "size"
    ],
    "source": [
        "media",
        "sizes",
        "src",
        "srcset",
        "type"
    ],
    "style": [
        "media",
        "scoped",
        "type"
    ],
    "table": [
        "align",
        "bgcolor",
        "border",
        "summary"
    ],
    "tbody": [
        "align",
        "bgcolor"
    ],
    "td": [
        "align",
        "bgcolor",
        "colspan",
        "headers",
        "rowspan"
    ],
    "textarea": [
        "autocomplete",
        "autofocus",
        "cols",
        "dirname",
        "disabled",
        "form",
        "maxlength",
        "minlength",
        "name",
        "placeholder",
        "readonly",
        "required",
        "rows",
        "wrap"
    ],
    "tfoot": [
        "align",
        "bgcolor"
    ],
    "th": [
        "align",
        "bgcolor",
        "colspan",
        "headers",
        "rowspan",
        "scope"
    ],
    "thead": [
        "align"
    ],
    "time": [
        "datetime"
    ],
    "tr": [
        "align",
        "bgcolor"
    ],
    "track": [
        "default",
        "kind",
        "label",
        "src",
        "srclang"
    ],
    "video": [
        "autoplay",
        "buffered",
        "controls",
        "crossorigin",
        "height",
        "loop",
        "muted",
        "poster",
        "preload",
        "src",
        "width"
    ]
}
