{
    "a": [
        "authorization",
        "age",
        "accept-ch",
        "accept-ch-lifetime",
        "accept",
        "accept-charset",
        "accept-encoding",
        "accept-language",
        "access-control-allow-origin",
        "access-control-allow-credentials",
        "access-control-allow-headers",
        "access-control-allow-methods",
        "access-control-expose-headers",
        "access-control-max-age",
        "access-control-request-headers",
        "access-control-request-method",
        "allow",
        "accept-ranges",
        "alt-svc"
    ],
    "c": [
        "cache-control",
        "clear-site-data",
        "content-dpr",
        "connection",
        "cookie",
        "cookie2",
        "cross-origin-resource-policy",
        "content-disposition",
        "content-length",
        "content-type",
        "content-encoding",
        "content-language",
        "content-location",
        "content-range",
        "content-security-policy",
        "content-security-policy-report-only"
    ],
    "d": [
        "dpr",
        "downlink",
        "dnt",
        "date"
    ],
    "e": [
        "expires",
        "early-data",
        "etag",
        "expect",
        "expect-ct",
        "expect-ct"
    ],
    "f": [
        "forwarded",
        "from",
        "feature-policy"
    ],
    "h": [
        "host"
    ],
    "i": [
        "if-match",
        "if-none-match",
        "if-modified-since",
        "if-unmodified-since",
        "if-range"
    ],
    "k": [
        "keep-alive"
    ],
    "l": [
        "last-modified",
        "location",
        "last-event-id",
        "large-allocation",
        "link"
    ],
    "m": [
        "max-forwards"
    ],
    "o": [
        "origin"
    ],
    "p": [
        "proxy-authenticate",
        "proxy-authorization",
        "pragma",
        "public-key-pins",
        "public-key-pins-report-only",
        "ping-from",
        "ping-to",
        "push-policy"
    ],
    "r": [
        "referer",
        "referrer-policy",
        "range",
        "retry-after"
    ],
    "s": [
        "save-data",
        "set-cookie",
        "set-cookie2",
        "server",
        "strict-transport-security",
        "sec-websocket-key",
        "sec-websocket-extensions",
        "sec-websocket-accept",
        "sec-websocket-protocol",
        "sec-websocket-version",
        "server-timing",
        "sourcemap"
    ],
    "t": [
        "timing-allow-origin",
        "tk",
        "transfer-encoding",
        "te",
        "trailer"
    ],
    "u": [
        "user-agent",
        "upgrade-insecure-requests",
        "upgrade"
    ],
    "v": [
        "viewport-width",
        "via",
        "vary"
    ],
    "w": [
        "www-authenticate",
        "warning",
        "width"
    ],
    "x": [
        "x-permitted-cross-domain-policies",
        "x-forwarded-for",
        "x-forwarded-host",
        "x-forwarded-proto",
        "x-content-type-options",
        "x-download-options",
        "x-frame-options",
        "x-powered-by",
        "x-xss-protection",
        "x-dns-prefetch-control",
        "x-firefox-spdy",
        "x-pingback",
        "x-requested-with",
        "x-robots-tag",
        "x-ua-compatible"
    ]
}